<?xml version="1.0" encoding="utf-8"?>
<!-- Generator: Adobe Illustrator 21.0.0, SVG Export Plug-In . SVG Version: 6.00 Build 0)  -->
<svg version="1.1" xmlns="http://www.w3.org/2000/svg" xmlns:xlink="http://www.w3.org/1999/xlink" x="0px" y="0px"
	 viewBox="0 0 144 144" style="enable-background:new 0 0 144 144;" xml:space="preserve">
<style type="text/css">
	.st0{display:none;fill:#0984E3;}
	.st1{fill:#0984E3;}
	.st2{fill-rule:evenodd;clip-rule:evenodd;fill:#00A8FF;stroke:#B3D7E2;stroke-width:0.5;stroke-miterlimit:10;}
</style>
<g id="circle">
	<path class="st0" d="M71.5,30c19.7,0,36.3,13.5,41.1,31.7c3.2-0.6,4.8-1.4,5.6-2C112.7,39.4,94.1,24.5,72,24.5
		c-19.5,0-36.3,11.7-43.8,28.4c0.9-0.4,5-2.4,7.6-3.5C43.4,37.7,56.5,30,71.5,30z"/>
	<path class="st0" d="M104.4,99.4c-7.8,9.5-19.7,15.6-32.9,15.6c-19,0-35.1-12.5-40.5-29.6c-1.2,0-2.8,0.2-5,0.8
		c5.9,19.9,24.3,34.4,46,34.4c17.4,0,32.7-9.3,41.1-23.2C109.3,98.4,106.1,99.1,104.4,99.4z"/>
	<g>
		<path class="st1" d="M106.4,94.9C99,106.4,86.1,114,71.5,114c-18.6,0-34.3-12.2-39.6-29.1c-1.5,0-3.6,0.2-6,0.8
			c5.7,19.8,24,34.3,45.6,34.3c18.5,0,34.5-10.6,42.3-26C112.1,94.4,109.7,94.8,106.4,94.9z"/>
		<path class="st1" d="M71.5,31c19.4,0,35.7,13.3,40.2,31.3c1.7-0.2,3.7-0.7,5.8-1.7C112.2,40.1,93.6,25,71.5,25
			c-19.7,0-36.6,12-43.8,29c2.6-1.2,5.7-2.6,8.5-3.4C43.6,38.8,56.6,31,71.5,31z"/>
	</g>
</g>
<g id="Layer_3">
	<path class="st2" d="M12.1,76.8c51-35.6,71.7,10.2,115.8-12.5C85.6,95.7,62.2,55,12.1,76.8z"/>
	<path class="st2" d="M13.9,81.1c51.9-21.9,68.3,13.6,112.6,0.5C83.3,101.2,63.8,69.3,13.9,81.1z"/>
	<path class="st2" d="M14.2,70.6C45.7,38.4,67,67,95.5,44.7C69.6,72.7,47,48.1,14.2,70.6z"/>
</g>
</svg>
